:020000040800F2
:1080000070060020898100080B8B0008958A000803
:10801000098B00088F820008858B00080000000093
:108020000000000000000000000000000F8B0008AE
:1080300091820008000000000D8B0008118B0008E1
:10804000A3810008A3810008A3810008A381000880
:10805000A3810008A3810008A3810008A381000870
:10806000A3810008A3810008A3810008A381000860
:10807000A3810008A3810008A3810008A381000850
:10808000A3810008A3810008A3810008A381000840
:10809000A3810008A3810008A3810008A381000830
:1080A000A3810008A3810008A3810008A381000820
:1080B000A3810008A3810008A3810008A381000810
:1080C000A3810008A3810008A3810008A381000800
:1080D000A3810008A3810008A3810008A3810008F0
:1080E000A3810008A3810008A381000800F002F822
:1080F00000F03AF80AA090E8000C82448344AAF108
:108100000107DA4501D100F02FF8AFF2090EBAE805
:108110000F0013F0010F18BFFB1A43F001031847BB
:10812000D40A0000F40A0000103A24BF78C878C1CD
:10813000FAD8520724BF30C830C144BF04680C606D
:10814000704700000023002400250026103A28BFB5
:1081500078C1FBD8520728BF30C148BF0B607047B9
:108160001FB51FBD10B510BD00F058F81146FFF740
:10817000F7FF00F019FD00F076F803B4FFF7F2FF07
:1081800003BC00F07DF8000009488047094800471B
:10819000FEE7FEE7FEE7FEE7FEE7FEE7FEE7FEE7B7
:1081A000FEE7FEE704480549054A064B7047000014
:1081B000758B0008ED80000870000020700600201C
:1081C00070020020700200204FF0000200B513463C
:1081D00094469646203922BFA0E80C50A0E80C50E7
:1081E000B1F12001BFF4F7AF090728BFA0E80C5098
:1081F00048BF0CC05DF804EB890028BF40F8042B91
:1082000008BF704748BF20F8022B11F0804F18BFFD
:1082100000F8012B7047704770477047754600F0B3
:108220002BF8AE4605006946534620F00700854608
:1082300018B020B5FFF7B6FFBDE820404FF00006AC
:108240004FF000074FF000084FF0000B21F007013E
:10825000AC46ACE8C009ACE8C009ACE8C009ACE881
:10826000C0098D46704710B50446AFF30080204624
:10827000BDE81040FFF781BF0048704710000020A4
:1082800001491820ABBEFEE7260002007047FEE75A
:108290007047000070B5044600F00CF90546601CFC
:1082A00002D004480078044400F004F9401BA042C6
:1082B000FAD370BD000000202DE9F84FDFF8B89127
:1082C0000024A9F1040B23460F2709F1040AABF19E
:1082D000040EC9E00125A5402A40AA427DD1674E7F
:1082E000D1F804C0ACEB0608B44532D014DCBCF1C4
:1082F000030F3AD009DCBCF1000F2AD0BCF1010F0A
:108300001CD0BCF1020F31D11DE0BCF1110F17D010
:10831000BCF1120F2AD119E0B8F5881F19D006DC7C
:10832000B8F5803F15D0B8F5801F1FD111E0B8F522
:10833000001F0ED0B8F5041F18D10AE0CB6815E075
:10834000CB681B1D12E0CB6808330FE0CB680C3301
:108350000CE08B682BB1012B4FF0080303D0456173
:1083600004E0042302E0056100E00023FF2A01D8B5
:10837000064601E000F104064FEA840501D9A5F1A3
:108380002005D6F8008007FA05FC28EA0C0803FA55
:1083900005F548EA0508C6F800804D68ED0062D58D
:1083A000374DAE6946F00106AE61AD6924F00306B3
:1083B00005F001050095334D06EB050CDCF808507F
:1083C000A607360F07FA06F825EA0805DFF8B88091
:1083D000404503D14FF0000817E044E0DFF8AC80DF
:1083E000404502D14FF001080FE0DFF8A48040457E
:1083F00002D14FF0020808E0DFF89880404502D132
:108400004FF0030801E04FF0040808FA06F848EAC4
:108410000508CCF808804D68D9F80060ED024D469B
:1084200001D5164300E096432E604D68DAF80060EF
:10843000AD02554601D5164300E096432E604D68C7
:10844000DBF80060AD035D4601D5164300E09643BE
:108450002E604D68DEF80060ED03754601D51643C9
:1084600000E096432E60641C0D682A46E5407FF4C8
:1084700031AFBDE8F88F0000080401400000111082
:10848000001002400000014000080140000C0140C3
:108490000010014000140140C26821EA02030A40B2
:1084A00043EA0241016170470AB101617047090462
:1084B000FBE70000014880687047000000000020D2
:1084C00002488168027811448160704700000020F2
:1084D000074810B5016841F010010160032000F069
:1084E00067F80F2000F006F800F024F8002010BD17
:1084F0000020024070B50D4D04464FF47A71287883
:10850000B1FBF0F00A490968B1FBF0F000F0AEFAF7
:1085100048B9102C07D200222146501E00F028F83E
:1085200000206C6070BD012070BD000000000020C4
:108530000C0000200C4808B5816941F001018161FF
:10854000816901F001010091C16941F08051C1616F
:10855000C06900F0805000900448416821F0E0615B
:1085600041F00071416008BD001002400000014070
:10857000F0B40E4B1B680C46C3F30223C3F107058E
:10858000042D00D90425191D072901D2002300E07C
:10859000DB1E012606FA05F1491E214099409E4046
:1085A000761E16403143F0BC00F0EDBA0CED00E051
:1085B000064900F0070208684FF6FF03184040EA3A
:1085C0000220034A10430860704700000CED00E0F1
:1085D0000000FA052DE9F0470F46050061D0434E33
:1085E000306800F00700B84209D2306820F0070078
:1085F00038433060306800F00700B84251D1286835
:108600003B4C810712D5400703D5606840F4E06019
:1086100060602878000703D5606840F460506060AF
:108620006068A96820F0F000084360602878C007FF
:1086300028D06868012810D02168022810D0890746
:1086400000292EDA616821F0030101436160FFF720
:1086500031FF804641F288390DE021688903EFE758
:108660008901EDE7FFF726FFA0EB0801494502D994
:108670000320BDE8F0876068696800F00C00B0EB8B
:10868000810FEFD1306800F00700B8420BD9306895
:1086900020F0070038433060306800F00700B8422F
:1086A00001D00120E5E72878400705D56068E96832
:1086B00020F4E060084360602878000706D5606811
:1086C000296920F4605040EAC100606000F018F8A9
:1086D0006168084AC1F30311515CC840064908604B
:1086E00006480068FFF706FF0020C2E700200240AE
:1086F00000100240E28B00080C0000200400002063
:108700000E4A51680E4801F00C03042B11D0082BBF
:108710000FD10C48C1F38343C903C05C0AD551682B
:10872000084AC1F34041921E515C054A5043B0FBD8
:10873000F1F07047044948437047000000100240C0
:1087400000127A00D28B000800093D002DE9F84F95
:10875000040070D02078C04DC00749D06868C0F3CD
:108760008100012807D06868C0F38100022809D180
:108770006868C00306D52868800339D5606800287A
:10878000E7D035E06068B0F5803F0BD010B1B0F5B0
:10879000A02F11D0286820F480302860286820F4A9
:1087A000802002E0286840F480302860606890B142
:1087B000FFF780FE06460AE0286840F48020286023
:1087C000F0E700BFFFF776FE801B642873D82868A7
:1087D0008003F7D50CE0FFF76DFE064605E000BF0D
:1087E000FFF768FE801B6428F0D828688003F7D460
:1087F00020789A4E80074FF001094FF0000839D5D4
:10880000686810F00C0F07D06868C0F38100022878
:1088100009D16868C00306D42868800714D5206988
:10882000012808D110E02069B0B1C6F80090FFF728
:1088300041FE074605E00AE1FFF73CFEC01B0228A7
:10884000C4D828688007F7D52868616920F0F80047
:1088500040EAC10028600DE0C6F80080FFF72AFE5C
:10886000074604E0FFF726FEC01B022823D828682D
:108870008007F7D4207800072CD57948A169D9B1B1
:10888000C0F80090FFF716FE074604E0FFF712FE5F
:10889000C01B02280FD8686A8007F7D571484FF4CB
:1088A000FA510068B0FBF1F0009000BF0098411E43
:1088B0000091FAD20EE080E0C0F80080FFF7FAFDE8
:1088C000074604E0FFF7F6FDC01B022875D8686A6A
:1088D0008007F7D42078400760D5E8690027C000FA
:1088E00008D4E86940F08050E861E869012700F0A9
:1088F000805000905C480168C90513D40168834624
:1089000041F480710160FFF7D5FD824606E000BFAB
:10891000FFF7D0FDA0EB0A0064284ED8DBF800007A
:10892000C005F5D5E06801280AD008B1052813D0A4
:10893000286A20F001002862286A20F0040002E082
:10894000286A40F001002862E06841F2883B98B153
:10895000FFF7B0FD82460BE0286A40F00400286271
:10896000EEE700BFFFF7A6FDA0EB0A0159455AD874
:10897000286A8007F6D50CE0FFF79CFD824605E0EB
:10898000FFF798FDA0EB0A0159454CD8286A8007EB
:10899000F6D41FB1E86920F08050E861E06988B33F
:1089A0006968C1F38101022944D00228C6F86080B9
:1089B00004D0FFF77FFD044638E034E0FFF77AFD8E
:1089C000074604E0FFF776FDC01B02282BD8286875
:1089D0008001F7D4206AB0F5803F05D16868A168AE
:1089E00020F4003008436860D4E90801084369684E
:1089F00021F4741108436860C6F86090FFF75AFDCF
:108A0000044606E025E000BFFFF754FD001B0228E6
:108A100009D828688001F7D51BE000BFFFF74AFDA1
:108A2000001B022802D90320BDE8F88F28688001C6
:108A3000F4D40EE00128F7D06868226A00F480318F
:108A4000914204D1616A00F47010884201D0012083
:108A5000EAE70020E8E70000001002400000424280
:108A6000800442420C0000200070004010B5401EFF
:108A7000B0F1807F01D3012010BD4FF0E024606190
:108A80000F21601700F07FF80020A061072020610F
:108A9000002010BDFEE7000070B586B00024184825
:108AA0000094019402940394816941F02001816152
:108AB000816901F020010491816941F0080181611F
:108AC000816901F008010491816941F0040181612B
:108AD00080690C4E00F004004FF480550490002291
:108AE00029463046FFF7E0FC01200095CDE901045E
:108AF0000220039069463046FFF7DEFB06B070BDEA
:108B000000100240000C0140FEE7FEE7704770478E
:108B1000FFF7D6BC30B58FB028216846FFF754FB6D
:108B200014210AA8FFF750FB01210804CDE9001029
:108B30000024029402250491CDE907504FF4E0107F
:108B400009906846FFF702FE08B172B6FEE70F20F3
:108B5000CDE90A054FF48060CDE90C4002210AA856
:108B60000E94FFF737FD002801D072B6FEE70FB074
:108B700030BD0000024901480860704700800008CD
:108B800008ED00E0FEE70907090E002804DB00F10C
:108B9000E02080F80014704700F00F0000F1E020A2
:108BA00080F8141D70470000FFF792FCFFF7B2FF3A
:108BB000FFF772FF054D4FF4805421462846FFF71A
:108BC0006BFC6420FFF766FBF7E70000000C014038
:108BD000010202030405060708090A0B0C0D0E0F1B
:108BE000101000000000000000000102030406074E
:108BF00008090000148C000800000020100000008C
:108C000028810008248C0008100000206006000065
:108C10004481000801000000100000000000000076
:048C20000024F40038
:04000005080080ED82
:00000001FF
